%YAML 1.1
%TAG !u! tag:unity3d.com,2011:
--- !u!114 &-7592045320534806019
MonoBehaviour:
  m_ObjectHideFlags: 11
  m_CorrespondingSourceObject: {fileID: 0}
  m_PrefabInstance: {fileID: 0}
  m_PrefabAsset: {fileID: 0}
  m_GameObject: {fileID: 0}
  m_Enabled: 1
  m_EditorHideFlags: 0
  m_Script: {fileID: 11500000, guid: d0353a89b1f911e48b9e16bdc9f2e058, type: 3}
  m_Name: 
  m_EditorClassIdentifier: 
  version: 4
--- !u!21 &2100000
Material:
  serializedVersion: 6
  m_ObjectHideFlags: 0
  m_CorrespondingSourceObject: {fileID: 0}
  m_PrefabInstance: {fileID: 0}
  m_PrefabAsset: {fileID: 0}
  m_Name: Holo Mat
  m_Shader: {fileID: -6465566751694194690, guid: 3cc19d4a9c2e7bf49b71c1f80982c595, type: 3}
  m_ShaderKeywords: 
  m_LightmapFlags: 4
  m_EnableInstancingVariants: 0
  m_DoubleSidedGI: 0
  m_CustomRenderQueue: -1
  stringTagMap: {}
  disabledShaderPasses: []
  m_SavedProperties:
    serializedVersion: 3
    m_TexEnvs:
    - Texture2D_45a1fdbd1b594d599a823f6ea21f5947:
        m_Texture: {fileID: 2800000, guid: 7bae9f3d8fb74334ba3889f53fe7eea0, type: 3}
        m_Scale: {x: 1, y: 1}
        m_Offset: {x: 0, y: 0}
    - unity_Lightmaps:
        m_Texture: {fileID: 0}
        m_Scale: {x: 1, y: 1}
        m_Offset: {x: 0, y: 0}
    - unity_LightmapsInd:
        m_Texture: {fileID: 0}
        m_Scale: {x: 1, y: 1}
        m_Offset: {x: 0, y: 0}
    - unity_ShadowMasks:
        m_Texture: {fileID: 0}
        m_Scale: {x: 1, y: 1}
        m_Offset: {x: 0, y: 0}
    m_Floats:
    - Vector1_39d2337a1a984ff382cc922434a8bf51: 1
    - Vector1_e7d467d02c174a2cb48a67c914f610ff: 0.1
    - holoness: 1
    m_Colors:
    - Color_1eb3a9c27322497187c1e24cac36f874: {r: 0, g: 11.98431, b: 5.06518, a: 0}
    - Color_68cab020d4cb4d2a8753a90382a927ea: {r: 0.35821018, g: 0.9528302, b: 0.3460751, a: 0}
    - Color_ccf27e0ebc8c4d3194af1e12b6d909f6: {r: 1, g: 0, b: 0.7673602, a: 0}
    - Vector2_f20b296075ea421999e24d268508c75c: {r: 1, g: 0.5, b: 0, a: 0}
    - baseColor: {r: 0.066666685, g: 0.9529412, b: 0.6096921, a: 0}
    - glowColor: {r: 1, g: 0.2688679, b: 0.8449279, a: 0}
    - holoColor: {r: 0.066666685, g: 0.9529412, b: 0.2276588, a: 0}
  m_BuildTextureStacks: []
